PLAN 372 Homework 6: Text Management
…
# Remove the " x " from hybrid plants using str_replace
trees_cleaned <- trees %>%
  mutate(clean_name = str_replace(ScientificName, "[:space:]x[:space:]", " "))

# Now, extract the Genus and Species using two capture groups.
# Extract exactly two words at the START of the string (^)
# By specifying with (^) ignores additional information like trailing cultivars ('Fastigiata') or varieties (var. silicicola)
trees_cleaned[, c("genus", "species")] <- str_match(trees_cleaned$clean_name, "^([:alpha:]+)[:space:]+([:alpha:]+)")[, 2:3]

# Count the distinct species per genus
trees_cleaned %>%
  group_by(genus) %>%
  summarize(num_species = n_distinct(species))

# A tibble: 85 × 2
   genus        num_species
   <chr>              <int>
 1 Acacia                 3
 2 Acer                   7
 3 Aesculus               1
 4 Bauhinia               1
 5 Betula                 2
 6 Brachychiton           1
 7 Butia                  1
 8 Callistemon            1
 9 Calocedrus             1
10 Calophyllum            1
# ℹ 75 more rows
…
